ISYE 6420 - BUGS to Stan - Dugongs
…
Now that we have the data to pass into our sampling, let’s proceed.

fit <- mod$sample(
  data = input_data,
  seed = 123,
  chains = 4,
  parallel_chains = 4,
  refresh = 500,   # print update every 500 iterations
  iter_warmup = 1000,
  iter_sampling = 5000
)

fit$summary()

# A tibble: 34 × 10
   variable   mean  median     sd    mad      q5    q95  rhat ess_bulk ess_tail
   <chr>     <num>   <num>  <num>  <num>   <num>  <num> <num>    <num>    <num>
 1 lp__     49.5   49.9    2.09   1.90   45.5    52.2    1.00    5446.    7258.
 2 alpha     2.73   2.71   0.125  0.106   2.57    2.96   1.00    3806.    2567.
 3 beta      0.986  0.978  0.105  0.0925  0.833   1.16   1.00    5014.    2863.
 4 gamma     0.886  0.891  0.0358 0.0313  0.823   0.936  1.00    4033.    3205.
 5 sigma     0.100  0.0980 0.0165 0.0153  0.0771  0.130  1.00    8360.    8205.
 6 y_mis[1]  1.91   1.91   0.114  0.111   1.72    2.09   1.00   11392.   11007.
 7 y_mis[2]  2.69   2.69   0.128  0.123   2.48    2.90   1.00    6343.    6816.
 8 Y[1]      1.8    1.8    0      0       1.8     1.8   NA         NA       NA 
 9 Y[2]      1.85   1.85   0      0       1.85    1.85  NA         NA       NA 
10 Y[3]      1.87   1.87   0      0       1.87    1.87  NA         NA       NA 
# ℹ 24 more rows
…
